<svg xmlns="http://www.w3.org/2000/svg" width="422" height="422" viewBox="0 0 422 422">
  <g id="Group_1" data-name="Group 1" transform="translate(256 222)">
    <rect id="Rectangle_1" data-name="Rectangle 1" width="72" height="422" rx="36" transform="translate(-81 -222)"/>
    <rect id="Rectangle_2" data-name="Rectangle 2" width="72" height="422" rx="36" transform="translate(166 -47) rotate(90)"/>
  </g>
</svg>
